11 14
1 2
1 3
4 5
5 3
7 2
10 15
15 20
20 21
22 23
0 1
0 8
0 Cats, Music and Film, News, Science Fiction 
1 News, Maths
2 Science, Music and Film
3 Tech, Security, Maths
4 Entertainment
5 Pets, Maths & Maths
7 Music, Cats
8 News
10 Cats, Dogs
15 Cats, Maths
20 Music, Books, News, Maths
21 Stuff, Others, Maths
22 Entertainment, Others
23 Stuff, Maths